…
Wer klatscht für wen?

``` r
df %>% 
  filter(party %in% party_vector, speaker_party %in% party_vector, party != speaker_party, type == "beifall") %>% 
  count(party, speaker_party) %>% 
  arrange(desc(n))
```

    ## # A tibble: 30 x 3
    ##    party  speaker_party     n
    ##    <chr>  <chr>         <int>
    ##  1 spd    union           871
    ##  2 fdp    union           828
    ##  3 union  spd             606
    ##  4 linke  gruene          587
    ##  5 gruene spd             573
    ##  6 gruene union           467
    ##  7 linke  spd             461
    ##  8 spd    gruene          440
    ##  9 gruene linke           424
    ## 10 fdp    spd             328
    ## # ... with 20 more rows
…
Welche Fraktion ruft wie oft einer anderen zu?

``` r
df %>% 
  filter(party %in% party_vector, speaker_party %in% party_vector, party != speaker_party, type == "zuruf") %>% 
  count(party, speaker_party) %>% 
  arrange(desc(n))
```

    ## # A tibble: 30 x 3
    ##    party  speaker_party     n
    ##    <chr>  <chr>         <int>
    ##  1 gruene union           506
    ##  2 afd    union           464
    ##  3 gruene afd             453
    ##  4 linke  union           449
    ##  5 spd    afd             334
    ##  6 union  afd             269
    ##  7 afd    spd             254
    ##  8 linke  afd             223
    ##  9 afd    gruene          194
    ## 10 gruene spd             182
    ## # ... with 20 more rows
…
Wer lacht über wen?

``` r
df %>% 
  filter(type == "lachen", party %in% party_vector, speaker_party %in% party_vector) %>% 
  count(party, speaker_party) %>% 
  arrange(desc(n))
```

    ## # A tibble: 29 x 3
    ##    party  speaker_party     n
    ##    <chr>  <chr>         <int>
    ##  1 afd    union            68
    ##  2 spd    afd              58
    ##  3 gruene afd              48
    ##  4 linke  afd              34
    ##  5 afd    spd              29
    ##  6 union  afd              23
    ##  7 linke  union            21
    ##  8 afd    gruene           20
    ##  9 afd    linke            20
    ## 10 afd    fdp              17
    ## # ... with 19 more rows
…
